…
```r
na.omit(global_sharks)
```

```
## # A tibble: 1,621 × 21
##    date        year type       country area  location activity name  sex   age  
##    <date>     <dbl> <chr>      <chr>   <chr> <chr>    <chr>    <chr> <chr> <chr>
##  1 2022-03-09  2022 Provoked   USA     Flor… New Smy… Fishing  male  M     21.0 
##  2 2021-01-22  2021 Unprovoked USA     Hawa… Maui     Snorkel… Jerr… M     73.0 
##  3 2020-06-07  2020 Unprovoked AUSTRA… New … Salt Be… Surfing  Rob … M     60.0 
##  4 2019-10-21  2019 Unprovoked FRENCH… Moor… Opunohu… Snorkel… Emma… F     35.0 
##  5 2019-07-10  2019 Unprovoked SOUTH … East… East Be… Surfing  Dust… M     20's 
##  6 2019-03-12  2019 Unprovoked USA     Flor… Stuart … Boogie … Kael… M     11.0 
##  7 2018-07-18  2018 Unprovoked USA     New … Sailors… Wading   Lola… F     12.0 
##  8 2018-06-03  2018 Unprovoked BRAZIL  Pern… Piedade… Swimming Jose… M     18.0 
##  9 2017-01-09  2017 Unprovoked INDONE… Bali  Balian … Surfing  Dani… M     48.0 
## 10 2015-07-26  2015 Invalid    USA     Sout… Edisto … Floating fema… F     35.0 
## # ℹ 1,611 more rows
## # ℹ 11 more variables: injury <chr>, fatal_y_n <chr>, time <chr>,
## #   species <chr>, investigator_or_source <chr>, pdf <chr>, href_formula <chr>,
## #   href <chr>, case_number_19 <chr>, case_number_20 <chr>,
## #   original_order <dbl>
```
…
