…
To keep things tidy, I am going to rename the variables in the mammals data.  

```r
mammals <- rename(mammals, genus="Genus", wean_mass="wean mass", max_life="max. life", litter_size="litter size", litters_per_year="litters/year")
```

## `filter()`
Unlike `select()`, `filter()` allows us to extract data that meet specific criteria within a variable. Let's say that we are interested only in the fish that occur in lake "AL". We can use `filter()` to extract these observations.  

```r
filter(fish, lakeid == "AL")
```

```
## # A tibble: 383 × 6
##    lakeid fish_id annnumber length radii_length_mm scalelength
##    <chr>    <dbl> <chr>      <dbl>           <dbl>       <dbl>
##  1 AL         299 EDGE         167            2.70        2.70
##  2 AL         299 2            167            2.04        2.70
##  3 AL         299 1            167            1.31        2.70
##  4 AL         300 EDGE         175            3.02        3.02
##  5 AL         300 3            175            2.67        3.02
##  6 AL         300 2            175            2.14        3.02
##  7 AL         300 1            175            1.23        3.02
##  8 AL         301 EDGE         194            3.34        3.34
##  9 AL         301 3            194            2.97        3.34
## 10 AL         301 2            194            2.29        3.34
## # ℹ 373 more rows
```

Similarly, if we are only interested in fish with a length greater than or equal to 350 we can use `filter()` to extract these observations.  

```r
filter(fish, length >= 350)
```

```
## # A tibble: 890 × 6
##    lakeid fish_id annnumber length radii_length_mm scalelength
##    <chr>    <dbl> <chr>      <dbl>           <dbl>       <dbl>
##  1 AL         306 EDGE         350            6.94        6.94
##  2 AL         306 10           350            6.46        6.94
##  3 AL         306 9            350            6.16        6.94
##  4 AL         306 8            350            5.88        6.94
##  5 AL         306 7            350            5.42        6.94
##  6 AL         306 6            350            4.90        6.94
##  7 AL         306 5            350            4.46        6.94
##  8 AL         306 4            350            3.75        6.94
##  9 AL         306 3            350            2.93        6.94
## 10 AL         306 2            350            2.14        6.94
## # ℹ 880 more rows
```
…
You can also extract observations "near" a certain value but you need to specify a tolerance.  

```r
filter(fish, near(radii_length_mm, 2, tol = 0.2))
```

```
## # A tibble: 291 × 6
##    lakeid fish_id annnumber length radii_length_mm scalelength
##    <chr>    <dbl> <chr>      <dbl>           <dbl>       <dbl>
##  1 AL         299 2            167            2.04        2.70
##  2 AL         300 2            175            2.14        3.02
##  3 AL         302 2            324            2.19        6.07
##  4 AL         303 2            325            2.04        6.79
##  5 AL         306 2            350            2.14        6.94
##  6 AL         308 2            355            1.86        6.67
##  7 AL         312 2            367            2.17        6.81
##  8 AL         313 2            367            2.06        6.47
##  9 AL         315 2            372            2.04        6.47
## 10 AL         316 2            372            1.82        6.35
## # ℹ 281 more rows
```
…
4. Filter the fish data to include fish with a scalelength between 2 and 4.




## Using `filter()` on multiple conditions
You can also use `filter()` to extract data based on multiple conditions. Below we extract only the fish that have lakeid "AL" and length >350.

```r
filter(fish, lakeid == "AL" & length > 350)
```

```
## # A tibble: 314 × 6
##    lakeid fish_id annnumber length radii_length_mm scalelength
##    <chr>    <dbl> <chr>      <dbl>           <dbl>       <dbl>
##  1 AL         307 EDGE         353            7.55        7.55
##  2 AL         307 13           353            7.28        7.55
##  3 AL         307 12           353            6.98        7.55
##  4 AL         307 11           353            6.73        7.55
##  5 AL         307 10           353            6.48        7.55
##  6 AL         307 9            353            6.22        7.55
##  7 AL         307 8            353            5.92        7.55
##  8 AL         307 7            353            5.44        7.55
##  9 AL         307 6            353            5.06        7.55
## 10 AL         307 5            353            4.37        7.55
## # ℹ 304 more rows
```

Notice that the `|` operator generates a different result.

```r
filter(fish, lakeid == "AL" | length > 350)
```

```
## # A tibble: 948 × 6
##    lakeid fish_id annnumber length radii_length_mm scalelength
##    <chr>    <dbl> <chr>      <dbl>           <dbl>       <dbl>
##  1 AL         299 EDGE         167            2.70        2.70
##  2 AL         299 2            167            2.04        2.70
##  3 AL         299 1            167            1.31        2.70
##  4 AL         300 EDGE         175            3.02        3.02
##  5 AL         300 3            175            2.67        3.02
##  6 AL         300 2            175            2.14        3.02
##  7 AL         300 1            175            1.23        3.02
##  8 AL         301 EDGE         194            3.34        3.34
##  9 AL         301 3            194            2.97        3.34
## 10 AL         301 2            194            2.29        3.34
## # ℹ 938 more rows
```

Rules:  
+ `filter(condition1, condition2)` will return rows where both conditions are met.  
+ `filter(condition1, !condition2)` will return all rows where condition one is true but condition 2 is not.  
+ `filter(condition1 | condition2)` will return rows where condition 1 or condition 2 is met.  
+ `filter(xor(condition1, condition2)` will return all rows where only one of the conditions is met, and not when both conditions are met.  

In this case, we filter out the fish with a length over 400 and a scale length over 11 or a radii length over 8.

```r
filter(fish, length > 400, (scalelength > 11 | radii_length_mm > 8))
```

```
## # A tibble: 23 × 6
##    lakeid fish_id annnumber length radii_length_mm scalelength
##    <chr>    <dbl> <chr>      <dbl>           <dbl>       <dbl>
##  1 AL         324 EDGE         406            8.21        8.21
##  2 AL         327 EDGE         413            8.33        8.33
##  3 AL         327 15           413            8.11        8.33
##  4 AL         328 EDGE         420            8.71        8.71
##  5 AL         328 16           420            8.41        8.71
##  6 AL         328 15           420            8.14        8.71
##  7 WS         180 EDGE         403           11.0        11.0 
##  8 WS         180 16           403           10.6        11.0 
##  9 WS         180 15           403           10.3        11.0 
## 10 WS         180 14           403            9.93       11.0 
## # ℹ 13 more rows
```
…
