…
```
## # A tibble: 1 × 3
##   species  na.rm     n
##   <chr>    <lgl> <int>
## 1 merriami TRUE  10596
```

```r
deserts %>%
  count(species, na.rm = T) %>%
  arrange(n)
```

```
## # A tibble: 40 × 3
##    species      na.rm     n
##    <chr>        <lgl> <int>
##  1 clarki       TRUE      1
##  2 scutalatus   TRUE      1
##  3 tereticaudus TRUE      1
##  4 tigris       TRUE      1
##  5 uniparens    TRUE      1
##  6 viridis      TRUE      1
##  7 leucophrys   TRUE      2
##  8 savannarum   TRUE      2
##  9 fuscus       TRUE      5
## 10 undulatus    TRUE      5
## # ℹ 30 more rows
```
…
9. Which two species have, on average, the highest weight? Once you have identified them, make a new column that is a ratio of `weight` to `hindfoot_length`. Make a plot that shows the range of this new ratio and fill by sex.

```r
deserts %>%
  filter(weight!="NA") %>%
  group_by(species_id) %>%
  summarise(mean_weight=mean(weight)) %>%
  arrange(desc(mean_weight))
```

```
## # A tibble: 25 × 2
##    species_id mean_weight
##    <chr>            <dbl>
##  1 NL               159. 
##  2 DS               120. 
##  3 SS                93.5
##  4 SH                73.1
##  5 SF                58.9
##  6 SO                55.4
##  7 DO                48.9
##  8 DM                43.2
##  9 PB                31.7
## 10 OL                31.6
## # ℹ 15 more rows
```

```r
deserts %>%
  filter(species_id=="NL" | species_id=="DS") %>%
  filter(weight!= "NA" | hindfoot_length!="NA") %>%
  mutate(ratio=weight/hindfoot_length) %>%
  select(species_id, sex, weight, hindfoot_length, ratio)
```

```
## # A tibble: 3,630 × 5
##    species_id sex   weight hindfoot_length ratio
##    <chr>      <chr>  <dbl>           <dbl> <dbl>
##  1 NL         M         NA              32    NA
##  2 NL         M         NA              33    NA
##  3 DS         F         NA              53    NA
##  4 DS         F         NA              48    NA
##  5 DS         F         NA              48    NA
##  6 NL         F         NA              31    NA
##  7 DS         F         NA              52    NA
##  8 NL         M         NA              33    NA
##  9 DS         F         NA              46    NA
## 10 DS         M         NA              45    NA
## # ℹ 3,620 more rows
```
…
