…
**2. Among the interesting variables in gapminder is life expectancy. How has global life expectancy changed between 1952 and 2007?**

```r
gapminder %>%
  filter(year>=195 & year<=2007)
```

```
## # A tibble: 1,704 × 6
##    country     continent  year lifeExp      pop gdpPercap
##    <fct>       <fct>     <int>   <dbl>    <int>     <dbl>
##  1 Afghanistan Asia       1952    28.8  8425333      779.
##  2 Afghanistan Asia       1957    30.3  9240934      821.
##  3 Afghanistan Asia       1962    32.0 10267083      853.
##  4 Afghanistan Asia       1967    34.0 11537966      836.
##  5 Afghanistan Asia       1972    36.1 13079460      740.
##  6 Afghanistan Asia       1977    38.4 14880372      786.
##  7 Afghanistan Asia       1982    39.9 12881816      978.
##  8 Afghanistan Asia       1987    40.8 13867957      852.
##  9 Afghanistan Asia       1992    41.7 16317921      649.
## 10 Afghanistan Asia       1997    41.8 22227415      635.
## # ℹ 1,694 more rows
```
…
```
## # A tibble: 142 × 5
##    country         pop1952    pop2007 groups popgrowth
##    <fct>             <int>      <int> <chr>      <int>
##  1 China         556263527 1318683096 drop   762419569
##  2 India         372000000 1110396331 drop   738396331
##  3 United States 157553000  301139947 drop   143586947
##  4 Indonesia      82052000  223547000 drop   141495000
##  5 Brazil         56602560  190010647 drop   133408087
##  6 Pakistan       41346560  169270617 drop   127924057
##  7 Bangladesh     46886859  150448339 drop   103561480
##  8 Nigeria        33119096  135031164 drop   101912068
##  9 Mexico         30144317  108700891 drop    78556574
## 10 Philippines    22438691   91077287 drop    68638596
## # ℹ 132 more rows
```
…
