…
2. Which cities in California have the highest number of colleges?

```r
college_counts <- colleges %>%
  group_by(California_City) %>%
  filter(n()!="NA") %>%
  summarise(Number_of_Colleges = n()) %>%
  arrange(desc(Number_of_Colleges))
college_counts
```

```
## # A tibble: 161 × 2
##    California_City Number_of_Colleges
##    <chr>                        <int>
##  1 Los Angeles                     24
##  2 San Diego                       18
##  3 San Francisco                   15
##  4 Sacramento                      10
##  5 Berkeley                         9
##  6 Oakland                          9
##  7 Claremont                        7
##  8 Pasadena                         6
##  9 Fresno                           5
## 10 Irvine                           5
## # ℹ 151 more rows
```
…
