…
```
## 
##   carni   herbi insecti    omni 
##      19      32       5      20
```

7. We are interested in two groups; small and large mammals. Let's define small as less than or equal to 19kg body weight and large as greater than or equal to 200kg body weight. Make two new dataframes (large and small) based on these parameters.

```r
small_mammal <- filter(msleep, bodywt<=19)
small_mammal
```

```
## # A tibble: 59 × 11
##    name   genus vore  order conservation sleep_total sleep_rem sleep_cycle awake
##    <chr>  <chr> <chr> <chr> <chr>              <dbl>     <dbl>       <dbl> <dbl>
##  1 Owl m… Aotus omni  Prim… <NA>                17         1.8      NA       7  
##  2 Mount… Aplo… herbi Rode… nt                  14.4       2.4      NA       9.6
##  3 Great… Blar… omni  Sori… lc                  14.9       2.3       0.133   9.1
##  4 Three… Brad… herbi Pilo… <NA>                14.4       2.2       0.767   9.6
##  5 Vespe… Calo… <NA>  Rode… <NA>                 7        NA        NA      17  
##  6 Dog    Canis carni Carn… domesticated        10.1       2.9       0.333  13.9
##  7 Roe d… Capr… herbi Arti… lc                   3        NA        NA      21  
##  8 Guine… Cavis herbi Rode… domesticated         9.4       0.8       0.217  14.6
##  9 Grivet Cerc… omni  Prim… lc                  10         0.7      NA      14  
## 10 Chinc… Chin… herbi Rode… domesticated        12.5       1.5       0.117  11.5
## # ℹ 49 more rows
## # ℹ 2 more variables: brainwt <dbl>, bodywt <dbl>
```
…
