…
2. Use `janitor` to rename the columns and make them easier to use. As part of this cleaning step, change `country`, `isscaap_group_number`, `asfis_species_number`, and `fao_major_fishing_area` to data class factor. 

```r
fisheries <- clean_names(fisheries)
```


```r
fisheries %>%
  mutate(across(c(country, isscaap_group_number, asfis_species_number, fao_major_fishing_area), as_factor))
```

```
## # A tibble: 17,692 × 71
##    country common_name               isscaap_group_number isscaap_taxonomic_gr…¹
##    <fct>   <chr>                     <fct>                <chr>                 
##  1 Albania Angelsharks, sand devils… 38                   Sharks, rays, chimaer…
##  2 Albania Atlantic bonito           36                   Tunas, bonitos, billf…
##  3 Albania Barracudas nei            37                   Miscellaneous pelagic…
##  4 Albania Blue and red shrimp       45                   Shrimps, prawns       
##  5 Albania Blue whiting(=Poutassou)  32                   Cods, hakes, haddocks 
##  6 Albania Bluefish                  37                   Miscellaneous pelagic…
##  7 Albania Bogue                     33                   Miscellaneous coastal…
##  8 Albania Caramote prawn            45                   Shrimps, prawns       
##  9 Albania Catsharks, nursehounds n… 38                   Sharks, rays, chimaer…
## 10 Albania Common cuttlefish         57                   Squids, cuttlefishes,…
## # ℹ 17,682 more rows
## # ℹ abbreviated name: ¹​isscaap_taxonomic_group
## # ℹ 67 more variables: asfis_species_number <fct>, asfis_species_name <chr>,
## #   fao_major_fishing_area <fct>, measure <chr>, x1950 <chr>, x1951 <chr>,
## #   x1952 <chr>, x1953 <chr>, x1954 <chr>, x1955 <chr>, x1956 <chr>,
## #   x1957 <chr>, x1958 <chr>, x1959 <chr>, x1960 <chr>, x1961 <chr>,
## #   x1962 <chr>, x1963 <chr>, x1964 <chr>, x1965 <chr>, x1966 <chr>, …
```
…
4. Refocus the data only to include country, isscaap_taxonomic_group, asfis_species_name, asfis_species_number, year, catch.

```r
fishers_new <- fisheries_tidy %>%
  select(country, isscaap_taxonomic_group, asfis_species_name, asfis_species_number, year, catch)
fishers_new
```

```
## # A tibble: 376,771 × 6
##    country isscaap_taxonomic_group asfis_species_name asfis_species_number  year
##    <chr>   <chr>                   <chr>              <chr>                <dbl>
##  1 Albania Sharks, rays, chimaeras Squatinidae        10903XXXXX            1995
##  2 Albania Sharks, rays, chimaeras Squatinidae        10903XXXXX            1996
##  3 Albania Sharks, rays, chimaeras Squatinidae        10903XXXXX            1997
##  4 Albania Sharks, rays, chimaeras Squatinidae        10903XXXXX            1998
##  5 Albania Sharks, rays, chimaeras Squatinidae        10903XXXXX            1999
##  6 Albania Sharks, rays, chimaeras Squatinidae        10903XXXXX            2000
##  7 Albania Sharks, rays, chimaeras Squatinidae        10903XXXXX            2001
##  8 Albania Sharks, rays, chimaeras Squatinidae        10903XXXXX            2002
##  9 Albania Sharks, rays, chimaeras Squatinidae        10903XXXXX            2003
## 10 Albania Sharks, rays, chimaeras Squatinidae        10903XXXXX            2004
## # ℹ 376,761 more rows
## # ℹ 1 more variable: catch <dbl>
```
…
6. Which country had the largest overall catch in the year 2000?

```r
fisheries_tidy %>% 
  filter(year==2000) %>%
  group_by(country) %>% 
  summarize(catch_total=sum(catch, na.rm=T)) %>% 
  arrange(desc(catch_total))
```

```
## # A tibble: 193 × 2
##    country                  catch_total
##    <chr>                          <dbl>
##  1 China                          25899
##  2 Russian Federation             12181
##  3 United States of America       11762
##  4 Japan                           8510
##  5 Indonesia                       8341
##  6 Peru                            7443
##  7 Chile                           6906
##  8 India                           6351
##  9 Thailand                        6243
## 10 Korea, Republic of              6124
## # ℹ 183 more rows
```

7. Which country caught the most sardines (_Sardina pilchardus_) between the years 1990-2000?

```r
fisheries_tidy %>%
  filter(asfis_species_name== "Sardina pilchardus") %>%
  filter(year>=1990 & year<=2000) %>%
  group_by(country) %>%
  summarize(catch_total=sum(catch, na.rm=T)) %>%
  arrange(desc(catch_total))
```

```
## # A tibble: 37 × 2
##    country               catch_total
##    <chr>                       <dbl>
##  1 Morocco                      7470
##  2 Spain                        3507
##  3 Russian Federation           1639
##  4 Ukraine                      1030
##  5 France                        966
##  6 Portugal                      818
##  7 Greece                        528
##  8 Italy                         507
##  9 Serbia and Montenegro         478
## 10 Denmark                       477
## # ℹ 27 more rows
```

8. Which five countries caught the most cephalopods between 2008-2012?

```r
fishers_new %>%
  filter(str_detect(isscaap_taxonomic_group, "Squids"))%>%
  filter(year>=2008 & year<=2012) %>%
  group_by(country) %>% 
  summarize(catch_total=sum(catch, na.rm=T)) %>% 
  arrange(desc(catch_total))
```

```
## # A tibble: 122 × 2
##    country                  catch_total
##    <chr>                          <dbl>
##  1 China                           8349
##  2 Korea, Republic of              3480
##  3 Peru                            3422
##  4 Japan                           3248
##  5 Chile                           2775
##  6 United States of America        2417
##  7 Indonesia                       1622
##  8 Taiwan Province of China        1394
##  9 Spain                           1147
## 10 France                          1138
## # ℹ 112 more rows
```

9. Which species had the highest catch total between 2008-2012? (hint: Osteichthyes is not a species)

```r
fishers_new %>%
  filter(year>=2008 & year>=2012) %>%
  group_by(asfis_species_name) %>% 
  summarize(catch_total=sum(catch, na.rm=T)) %>%
   arrange(desc(catch_total))
```

```
## # A tibble: 1,396 × 2
##    asfis_species_name    catch_total
##    <chr>                       <dbl>
##  1 Osteichthyes                19018
##  2 Theragra chalcogramma       11856
##  3 Engraulis ringens            7755
##  4 Katsuwonus pelamis           7673
##  5 Trichiurus lepturus          7309
##  6 Thunnus albacares            4509
##  7 Clupea harengus              3719
##  8 Gadus morhua                 3036
##  9 Scomber japonicus            2888
## 10 Scomber scombrus             2287
## # ℹ 1,386 more rows
```

10. Use the data to do at least one analysis of your choice.

```r
fishers_new %>%
  group_by(asfis_species_name) %>% 
  summarize(catch_total=mean(catch, na.rm=T)) %>%
   arrange(desc(catch_total))
```

```
## # A tibble: 1,546 × 2
##    asfis_species_name      catch_total
##    <chr>                         <dbl>
##  1 Engraulis ringens             4097.
##  2 Sardinops sagax               1314.
##  3 Theragra chalcogramma         1084.
##  4 Sardinops melanostictus       1012.
##  5 Trachurus murphyi              549.
##  6 Brevoortia patronus            523.
##  7 Engraulis japonicus            487.
##  8 Spisula solidissima            362.
##  9 Engraulis capensis             343.
## 10 Chelon haematocheilus          339 
## # ℹ 1,536 more rows
```
…
